<!doctype html>
<html lang="en">

<html lang="{{ app()->getLocale() }}">
<head>
    <meta charset="utf-8">
    <meta http-equiv="X-UA-Compatible" content="IE=edge">
    <meta name="viewport" content="width=device-width,initial-scale=1,shrink-to-fit=no">
    <meta name="description" content="Template">
    <meta name="author" content="Hafis Alrizal">
    
    <title>Hafis Alrizal</title>

    <link href="{{ asset('css/welcome.css') }}" rel="stylesheet" type="text/css">
    <link href="//netdna.bootstrapcdn.com/twitter-bootstrap/2.3.2/css/bootstrap-combined.no-icons.min.css"rel="stylesheet">
    <link href="//netdna.bootstrapcdn.com/font-awesome/3.2.1/css/font-awesome.css" rel="stylesheet">

</head>

<body>
    <div class="context">
        <h1>Hafis Alrizal</h1>
    </div>

    <div class="area">
        <ul class="circles">
            <li></li>
            <li></li>
            <li></li>
            <li></li>
            <li></li>
            <li></li>
            <li></li>
            <li></li>
            <li></li>
            <li></li>
        </ul>
    </div>

    <div class="content">
        <div class="avatar-container">
            <img class="avatar" src="{{ asset('images/hafis.png') }}">
        </div>

        <div class="social-media-container">
            <div class="social-media">
                <i class="icon-envelope icon-3x m-right-16"></i>
                <h4>hafisalrizal@gmail.com</h4>
            </div>
        </div>

        <div class="social-media-container">
            <div class="social-media">
                <a class=" m-right-16" href="https://github.com/cforclown">
                    <i class="icon-github icon-3x"></i>
                </a>
                <a class=" m-right-16" href="https://www.linkedin.com/in/hafis-alrizal-a0073017a/">
                    <i class="icon-linkedin-sign icon-3x"></i>
                </a>
                <a class=" m-right-16" href="https://www.facebook.com/hafis.alrizal">
                    <i class="icon-facebook-sign icon-3x"></i>
                </a>
                <a class="" href="https://www.instagram.com/hafisalrijal/">
                    <i class="icon-instagram icon-3x"></i>
                </a>
            </div>
        </div>

        @if (Route::has('login'))
            <div class="top-right links">
                @auth
                    <a href="{{ url('/home') }}" class="btn btn-primary btn-lg disabled" tabindex="-1" role="button" aria-disabled="true">Home</a>
                @else
                    <a href="{{ route('login') }}" class="btn btn-primary btn-lg disabled" tabindex="-1" role="button" aria-disabled="true">Login</a>
                @endauth
            </div>
        @endif
    </div>

</body>

</html>